# Blender v2.74 (sub 0) OBJ File: ''
# www.blender.org
mtllib UVSphere.mtl
o Sphere
v -0.309017 -0.951057 0.000000
v -0.250000 0.951057 -0.181636
v -0.475528 0.809017 -0.345492
v -0.654508 0.587785 -0.475528
v -0.769421 0.309017 -0.559017
v -0.809017 -0.000000 -0.587785
v -0.769421 -0.309017 -0.559017
v -0.654508 -0.587785 -0.475528
v -0.475528 -0.809017 -0.345492
v -0.250000 -0.951057 -0.181636
v -0.095491 0.951057 -0.293893
v -0.181635 0.809017 -0.559017
v -0.250000 0.587785 -0.769421
v -0.293892 0.309017 -0.904509
v -0.309017 -0.000000 -0.951057
v -0.293892 -0.309017 -0.904509
v -0.250000 -0.587785 -0.769421
v -0.181635 -0.809017 -0.559017
v -0.095491 -0.951057 -0.293893
v 0.095492 0.951057 -0.293893
v 0.181636 0.809017 -0.559017
v 0.250000 0.587785 -0.769421
v 0.293893 0.309017 -0.904509
v 0.309017 -0.000000 -0.951057
v 0.293893 -0.309017 -0.904509
v 0.250000 -0.587785 -0.769421
v 0.181636 -0.809017 -0.559017
v 0.095492 -0.951057 -0.293893
v 0.250001 0.951057 -0.181636
v 0.475529 0.809017 -0.345492
v 0.654509 0.587785 -0.475528
v 0.769421 0.309017 -0.559017
v 0.809017 -0.000000 -0.587785
v 0.769421 -0.309017 -0.559017
v 0.654509 -0.587785 -0.475528
v 0.475529 -0.809017 -0.345492
v 0.250000 -0.951057 -0.181636
v 0.309018 0.951057 -0.000000
v 0.587786 0.809017 -0.000000
v 0.809018 0.587785 0.000000
v 0.951057 0.309017 -0.000000
v 1.000001 -0.000000 -0.000000
v 0.951057 -0.309017 0.000000
v 0.809018 -0.587785 0.000000
v 0.587786 -0.809017 -0.000000
v 0.309017 -0.951057 -0.000000
v 0.000000 -1.000000 0.000000
v 0.250001 0.951057 0.181636
v 0.475529 0.809017 0.345492
v 0.654509 0.587785 0.475529
v 0.769422 0.309017 0.559017
v 0.809018 -0.000000 0.587785
v 0.769421 -0.309017 0.559017
v 0.654509 -0.587785 0.475529
v 0.475529 -0.809017 0.345492
v 0.250000 -0.951057 0.181636
v 0.095492 0.951057 0.293893
v 0.181636 0.809017 0.559017
v 0.250000 0.587785 0.769421
v 0.293893 0.309017 0.904509
v 0.309018 -0.000000 0.951057
v 0.293893 -0.309017 0.904509
v 0.250000 -0.587785 0.769421
v 0.181636 -0.809017 0.559017
v 0.095492 -0.951057 0.293893
v -0.095491 0.951057 0.293893
v -0.181635 0.809017 0.559017
v -0.250000 0.587785 0.769421
v -0.293892 0.309017 0.904509
v -0.309017 -0.000000 0.951057
v -0.293892 -0.309017 0.904509
v -0.250000 -0.587785 0.769421
v -0.181635 -0.809017 0.559017
v -0.095491 -0.951057 0.293893
v 0.000000 1.000000 0.000000
v -0.250000 0.951057 0.181636
v -0.475528 0.809017 0.345492
v -0.654509 0.587785 0.475529
v -0.769421 0.309017 0.559017
v -0.809017 -0.000000 0.587786
v -0.769421 -0.309017 0.559017
v -0.654509 -0.587785 0.475529
v -0.475528 -0.809017 0.345492
v -0.250000 -0.951057 0.181636
v -0.309017 0.951057 0.000000
v -0.587785 0.809017 0.000000
v -0.809017 0.587785 0.000000
v -0.951057 0.309017 0.000000
v -1.000000 -0.000000 0.000000
v -0.951057 -0.309017 -0.000000
v -0.809017 -0.587785 0.000000
v -0.587785 -0.809017 0.000000
vn -0.277600 -0.881500 -0.382100
vn -0.425900 -0.689200 -0.586200
vn -0.529000 -0.436100 -0.728000
vn -0.581200 -0.149000 -0.800000
vn -0.581200 0.149000 -0.800000
vn -0.529000 0.436100 -0.728000
vn -0.425900 0.689200 -0.586200
vn -0.277600 0.881500 -0.382100
vn 0.000000 -0.881500 -0.472200
vn 0.000000 -0.689200 -0.724600
vn 0.000000 -0.436100 -0.899900
vn 0.000000 -0.149000 -0.988800
vn 0.000000 0.149000 -0.988800
vn 0.000000 0.436100 -0.899900
vn 0.000000 0.689200 -0.724600
vn 0.000000 0.881500 -0.472200
vn 0.277600 -0.881500 -0.382100
vn 0.425900 -0.689200 -0.586200
vn 0.529000 -0.436100 -0.728000
vn 0.581200 -0.149000 -0.800000
vn 0.581200 0.149000 -0.800000
vn 0.529000 0.436100 -0.728000
vn 0.425900 0.689200 -0.586200
vn 0.277600 0.881500 -0.382100
vn 0.449100 -0.881500 -0.145900
vn 0.689200 -0.689200 -0.223900
vn 0.855900 -0.436100 -0.278100
vn 0.940400 -0.149000 -0.305600
vn 0.940400 0.149000 -0.305600
vn 0.855900 0.436100 -0.278100
vn 0.689200 0.689200 -0.223900
vn 0.449100 0.881500 -0.145900
vn 0.449100 -0.881500 0.145900
vn 0.689200 -0.689200 0.223900
vn 0.855900 -0.436100 0.278100
vn 0.940400 -0.149000 0.305600
vn 0.940400 0.149000 0.305600
vn 0.855900 0.436100 0.278100
vn 0.689200 0.689200 0.223900
vn 0.449100 0.881500 0.145900
vn 0.277600 -0.881500 0.382100
vn 0.425900 -0.689200 0.586200
vn 0.529000 -0.436100 0.728000
vn 0.581200 -0.149000 0.800000
vn 0.581200 0.149000 0.800000
vn 0.529000 0.436100 0.728000
vn 0.425900 0.689200 0.586200
vn 0.277600 0.881500 0.382100
vn 0.000000 -0.881500 0.472200
vn 0.000000 -0.689200 0.724600
vn 0.000000 -0.436100 0.899900
vn 0.000000 -0.149000 0.988800
vn 0.000000 0.149000 0.988800
vn 0.000000 0.436100 0.899900
vn 0.000000 0.689200 0.724600
vn 0.000000 0.881500 0.472200
vn -0.277600 -0.881500 0.382100
vn -0.425900 -0.689200 0.586200
vn -0.529000 -0.436100 0.728000
vn -0.581200 -0.149000 0.800000
vn -0.581200 0.149000 0.800000
vn -0.529000 0.436100 0.728000
vn -0.425900 0.689200 0.586200
vn -0.277600 0.881500 0.382100
vn -0.689200 -0.689200 0.223900
vn -0.855900 -0.436100 0.278100
vn -0.940400 -0.149000 0.305600
vn -0.940400 0.149000 0.305600
vn -0.855900 0.436100 0.278100
vn -0.689200 0.689200 0.223900
vn -0.449100 0.881500 0.145900
vn -0.156200 -0.986400 -0.050800
vn -0.449100 -0.881500 -0.145900
vn -0.689200 -0.689200 -0.223900
vn -0.855900 -0.436100 -0.278100
vn -0.940400 -0.149000 -0.305600
vn -0.940400 0.149000 -0.305600
vn -0.855900 0.436100 -0.278100
vn -0.689200 0.689200 -0.223900
vn -0.449100 0.881500 -0.145900
vn -0.156200 0.986400 -0.050800
vn -0.096600 -0.986400 -0.132900
vn -0.096600 0.986400 -0.132900
vn 0.000000 -0.986400 -0.164300
vn 0.000000 0.986400 -0.164300
vn 0.096600 -0.986400 -0.132900
vn 0.096600 0.986400 -0.132900
vn 0.156200 -0.986400 -0.050800
vn 0.156200 0.986400 -0.050800
vn 0.156200 -0.986400 0.050800
vn 0.156200 0.986400 0.050800
vn 0.096600 -0.986400 0.132900
vn 0.096600 0.986400 0.132900
vn 0.000000 -0.986400 0.164300
vn 0.000000 0.986400 0.164300
vn -0.096600 -0.986400 0.132900
vn -0.096600 0.986400 0.132900
vn -0.156200 -0.986400 0.050800
vn -0.449100 -0.881500 0.145900
vn -0.156200 0.986400 0.050800
usemtl None
s off
f 10//1 9//1 18//1 19//1
f 9//2 8//2 17//2 18//2
f 8//3 7//3 16//3 17//3
f 7//4 6//4 15//4 16//4
f 6//5 5//5 14//5 15//5
f 5//6 4//6 13//6 14//6
f 4//7 3//7 12//7 13//7
f 3//8 2//8 11//8 12//8
f 19//9 18//9 27//9 28//9
f 18//10 17//10 26//10 27//10
f 17//11 16//11 25//11 26//11
f 16//12 15//12 24//12 25//12
f 15//13 14//13 23//13 24//13
f 14//14 13//14 22//14 23//14
f 13//15 12//15 21//15 22//15
f 12//16 11//16 20//16 21//16
f 28//17 27//17 36//17 37//17
f 27//18 26//18 35//18 36//18
f 26//19 25//19 34//19 35//19
f 25//20 24//20 33//20 34//20
f 24//21 23//21 32//21 33//21
f 23//22 22//22 31//22 32//22
f 22//23 21//23 30//23 31//23
f 21//24 20//24 29//24 30//24
f 37//25 36//25 45//25 46//25
f 36//26 35//26 44//26 45//26
f 35//27 34//27 43//27 44//27
f 34//28 33//28 42//28 43//28
f 33//29 32//29 41//29 42//29
f 32//30 31//30 40//30 41//30
f 31//31 30//31 39//31 40//31
f 30//32 29//32 38//32 39//32
f 46//33 45//33 55//33 56//33
f 45//34 44//34 54//34 55//34
f 44//35 43//35 53//35 54//35
f 43//36 42//36 52//36 53//36
f 42//37 41//37 51//37 52//37
f 41//38 40//38 50//38 51//38
f 40//39 39//39 49//39 50//39
f 39//40 38//40 48//40 49//40
f 56//41 55//41 64//41 65//41
f 55//42 54//42 63//42 64//42
f 54//43 53//43 62//43 63//43
f 53//44 52//44 61//44 62//44
f 52//45 51//45 60//45 61//45
f 51//46 50//46 59//46 60//46
f 50//47 49//47 58//47 59//47
f 49//48 48//48 57//48 58//48
f 65//49 64//49 73//49 74//49
f 64//50 63//50 72//50 73//50
f 63//51 62//51 71//51 72//51
f 62//52 61//52 70//52 71//52
f 61//53 60//53 69//53 70//53
f 60//54 59//54 68//54 69//54
f 59//55 58//55 67//55 68//55
f 58//56 57//56 66//56 67//56
f 74//57 73//57 83//57 84//57
f 73//58 72//58 82//58 83//58
f 72//59 71//59 81//59 82//59
f 71//60 70//60 80//60 81//60
f 70//61 69//61 79//61 80//61
f 69//62 68//62 78//62 79//62
f 68//63 67//63 77//63 78//63
f 67//64 66//64 76//64 77//64
f 83//65 82//65 91//65 92//65
f 82//66 81//66 90//66 91//66
f 81//67 80//67 89//67 90//67
f 80//68 79//68 88//68 89//68
f 79//69 78//69 87//69 88//69
f 78//70 77//70 86//70 87//70
f 77//71 76//71 85//71 86//71
f 47//72 1//72 10//72
f 1//73 92//73 9//73 10//73
f 92//74 91//74 8//74 9//74
f 91//75 90//75 7//75 8//75
f 90//76 89//76 6//76 7//76
f 89//77 88//77 5//77 6//77
f 88//78 87//78 4//78 5//78
f 87//79 86//79 3//79 4//79
f 86//80 85//80 2//80 3//80
f 85//81 75//81 2//81
f 47//82 10//82 19//82
f 2//83 75//83 11//83
f 47//84 19//84 28//84
f 11//85 75//85 20//85
f 47//86 28//86 37//86
f 20//87 75//87 29//87
f 47//88 37//88 46//88
f 29//89 75//89 38//89
f 47//90 46//90 56//90
f 38//91 75//91 48//91
f 47//92 56//92 65//92
f 48//93 75//93 57//93
f 47//94 65//94 74//94
f 57//95 75//95 66//95
f 47//96 74//96 84//96
f 66//97 75//97 76//97
f 47//98 84//98 1//98
f 84//99 83//99 92//99 1//99
f 76//100 75//100 85//100
