^C:\PROGRAM FILES\ARTOOLKIT5\EXAMPLES\SIMPLELITE\SIMPLELITE.C
/c /I"C:\Program Files\ARToolKit5\VisualStudio\vs120\..\..\include\win32-i386" /I"C:\Program Files\ARToolKit5\VisualStudio\vs120\..\..\include" /Zi /nologo /W3 /WX- /Od /Oy- /D WIN32 /D _DEBUG /D DEBUG /D _CONSOLE /D _CRT_SECURE_NO_DEPRECATE /D _VC80_UPGRADE=0x0710 /D _MBCS /Gm /EHsc /RTC1 /MDd /GS /fp:precise /Zc:wchar_t /Zc:forScope /Fo"DEBUG\SIMPLELITE\\" /Fd"DEBUG\SIMPLELITE\VC120.PDB" /Gd /TC /analyze- C:\PROGRAM FILES\ARTOOLKIT5\EXAMPLES\SIMPLELITE\SIMPLELITE.C
^U:\DOCUMENTS\COMPUTER SCIENCE SEMESTER 1\AUGMENTED REALITY\ARTOOLKIT5\EXAMPLES\SIMPLELITE\SIMPLELITE.C
/c /I"U:\Documents\Computer Science Semester 1\Augmented Reality\ARToolKit5\VisualStudio\vs120\..\..\include\win32-i386" /I"U:\Documents\Computer Science Semester 1\Augmented Reality\ARToolKit5\VisualStudio\vs120\..\..\include" /Zi /nologo /W3 /WX- /Od /Oy- /D WIN32 /D _DEBUG /D DEBUG /D _CONSOLE /D _CRT_SECURE_NO_DEPRECATE /D _VC80_UPGRADE=0x0710 /D _MBCS /Gm /EHsc /RTC1 /MDd /GS /fp:precise /Zc:wchar_t /Zc:forScope /Fo"DEBUG\SIMPLELITE\\" /Fd"DEBUG\SIMPLELITE\VC120.PDB" /Gd /TC /analyze- U:\DOCUMENTS\COMPUTER SCIENCE SEMESTER 1\AUGMENTED REALITY\ARTOOLKIT5\EXAMPLES\SIMPLELITE\SIMPLELITE.C
^U:\DOCUMENTS\COMPUTER SCIENCE SEMESTER 1\AUGMENTED REALITY\ARTOOLKIT5\VISUALSTUDIO\VS120\AR1.CPP
/c /I"U:\Documents\Computer Science Semester 1\Augmented Reality\ARToolKit5\VisualStudio\vs120\..\..\include\win32-i386" /I"U:\Documents\Computer Science Semester 1\Augmented Reality\ARToolKit5\VisualStudio\vs120\..\..\include" /Zi /nologo /W3 /WX- /Od /Oy- /D WIN32 /D _DEBUG /D DEBUG /D _CONSOLE /D _CRT_SECURE_NO_DEPRECATE /D _VC80_UPGRADE=0x0710 /D _MBCS /Gm /EHsc /RTC1 /MDd /GS /fp:precise /Zc:wchar_t /Zc:forScope /Fo"DEBUG\SIMPLELITE\\" /Fd"DEBUG\SIMPLELITE\VC120.PDB" /Gd /TP /analyze- U:\DOCUMENTS\COMPUTER SCIENCE SEMESTER 1\AUGMENTED REALITY\ARTOOLKIT5\VISUALSTUDIO\VS120\AR1.CPP
^U:\DOCUMENTS\COMPUTER SCIENCE SEMESTER 1\AUGMENTED REALITY\ARTOOLKIT5\VISUALSTUDIO\VS120\AR2.CPP
/c /I"U:\Documents\Computer Science Semester 1\Augmented Reality\ARToolKit5\VisualStudio\vs120\..\..\include\win32-i386" /I"U:\Documents\Computer Science Semester 1\Augmented Reality\ARToolKit5\VisualStudio\vs120\..\..\include" /Zi /nologo /W3 /WX- /Od /Oy- /D WIN32 /D _DEBUG /D DEBUG /D _CONSOLE /D _CRT_SECURE_NO_DEPRECATE /D _VC80_UPGRADE=0x0710 /D _MBCS /Gm /EHsc /RTC1 /MDd /GS /fp:precise /Zc:wchar_t /Zc:forScope /Fo"DEBUG\SIMPLELITE\\" /Fd"DEBUG\SIMPLELITE\VC120.PDB" /Gd /TP /analyze- U:\DOCUMENTS\COMPUTER SCIENCE SEMESTER 1\AUGMENTED REALITY\ARTOOLKIT5\VISUALSTUDIO\VS120\AR2.CPP
^U:\DOCUMENTS\COMPUTER SCIENCE SEMESTER 1\AUGMENTED REALITY\ARTOOLKIT5\VISUALSTUDIO\VS120\AR3.CPP
/c /I"U:\Documents\Computer Science Semester 1\Augmented Reality\ARToolKit5\VisualStudio\vs120\..\..\include\win32-i386" /I"U:\Documents\Computer Science Semester 1\Augmented Reality\ARToolKit5\VisualStudio\vs120\..\..\include" /Zi /nologo /W3 /WX- /Od /Oy- /D WIN32 /D _DEBUG /D DEBUG /D _CONSOLE /D _CRT_SECURE_NO_DEPRECATE /D _VC80_UPGRADE=0x0710 /D _MBCS /Gm /EHsc /RTC1 /MDd /GS /fp:precise /Zc:wchar_t /Zc:forScope /Fo"DEBUG\SIMPLELITE\\" /Fd"DEBUG\SIMPLELITE\VC120.PDB" /Gd /TP /analyze- U:\DOCUMENTS\COMPUTER SCIENCE SEMESTER 1\AUGMENTED REALITY\ARTOOLKIT5\VISUALSTUDIO\VS120\AR3.CPP
^U:\DOCUMENTS\COMPUTER SCIENCE SEMESTER 1\AUGMENTED REALITY\ARTOOLKIT5\VISUALSTUDIO\VS120\AR4.CPP
/c /I"U:\Documents\Computer Science Semester 1\Augmented Reality\ARToolKit5\VisualStudio\vs120\..\..\include\win32-i386" /I"U:\Documents\Computer Science Semester 1\Augmented Reality\ARToolKit5\VisualStudio\vs120\..\..\include" /Zi /nologo /W3 /WX- /Od /Oy- /D WIN32 /D _DEBUG /D DEBUG /D _CONSOLE /D _CRT_SECURE_NO_DEPRECATE /D _VC80_UPGRADE=0x0710 /D _MBCS /Gm /EHsc /RTC1 /MDd /GS /fp:precise /Zc:wchar_t /Zc:forScope /Fo"DEBUG\SIMPLELITE\\" /Fd"DEBUG\SIMPLELITE\VC120.PDB" /Gd /TP /analyze- U:\DOCUMENTS\COMPUTER SCIENCE SEMESTER 1\AUGMENTED REALITY\ARTOOLKIT5\VISUALSTUDIO\VS120\AR4.CPP
^U:\DOCUMENTS\COMPUTER SCIENCE SEMESTER 1\AUGMENTED REALITY\ARTOOLKIT5\VISUALSTUDIO\VS120\AR5.CPP
/c /I"U:\Documents\Computer Science Semester 1\Augmented Reality\ARToolKit5\VisualStudio\vs120\..\..\include\win32-i386" /I"U:\Documents\Computer Science Semester 1\Augmented Reality\ARToolKit5\VisualStudio\vs120\..\..\include" /Zi /nologo /W3 /WX- /Od /Oy- /D WIN32 /D _DEBUG /D DEBUG /D _CONSOLE /D _CRT_SECURE_NO_DEPRECATE /D _VC80_UPGRADE=0x0710 /D _MBCS /Gm /EHsc /RTC1 /MDd /GS /fp:precise /Zc:wchar_t /Zc:forScope /Fo"DEBUG\SIMPLELITE\\" /Fd"DEBUG\SIMPLELITE\VC120.PDB" /Gd /TP /analyze- U:\DOCUMENTS\COMPUTER SCIENCE SEMESTER 1\AUGMENTED REALITY\ARTOOLKIT5\VISUALSTUDIO\VS120\AR5.CPP
^U:\DOCUMENTS\COMPUTER SCIENCE SEMESTER 1\AUGMENTED REALITY\ARTOOLKIT5\VISUALSTUDIO\VS120\AR6.CPP
/c /I"U:\Documents\Computer Science Semester 1\Augmented Reality\ARToolKit5\VisualStudio\vs120\..\..\include\win32-i386" /I"U:\Documents\Computer Science Semester 1\Augmented Reality\ARToolKit5\VisualStudio\vs120\..\..\include" /Zi /nologo /W3 /WX- /Od /Oy- /D WIN32 /D _DEBUG /D DEBUG /D _CONSOLE /D _CRT_SECURE_NO_DEPRECATE /D _VC80_UPGRADE=0x0710 /D _MBCS /Gm /EHsc /RTC1 /MDd /GS /fp:precise /Zc:wchar_t /Zc:forScope /Fo"DEBUG\SIMPLELITE\\" /Fd"DEBUG\SIMPLELITE\VC120.PDB" /Gd /TP /analyze- U:\DOCUMENTS\COMPUTER SCIENCE SEMESTER 1\AUGMENTED REALITY\ARTOOLKIT5\VISUALSTUDIO\VS120\AR6.CPP
^U:\DOCUMENTS\COMPUTER SCIENCE SEMESTER 1\AUGMENTED REALITY\ARTOOLKIT5\VISUALSTUDIO\VS120\AR8.CPP
/c /I"U:\Documents\Computer Science Semester 1\Augmented Reality\ARToolKit5\VisualStudio\vs120\..\..\include\win32-i386" /I"U:\Documents\Computer Science Semester 1\Augmented Reality\ARToolKit5\VisualStudio\vs120\..\..\include" /Zi /nologo /W3 /WX- /Od /Oy- /D WIN32 /D _DEBUG /D DEBUG /D _CONSOLE /D _CRT_SECURE_NO_DEPRECATE /D _VC80_UPGRADE=0x0710 /D _MBCS /Gm /EHsc /RTC1 /MDd /GS /fp:precise /Zc:wchar_t /Zc:forScope /Fo"DEBUG\SIMPLELITE\\" /Fd"DEBUG\SIMPLELITE\VC120.PDB" /Gd /TP /analyze- U:\DOCUMENTS\COMPUTER SCIENCE SEMESTER 1\AUGMENTED REALITY\ARTOOLKIT5\VISUALSTUDIO\VS120\AR8.CPP
^U:\DOCUMENTS\COMPUTER SCIENCE SEMESTER 1\AUGMENTED REALITY\ARTOOLKIT5\VISUALSTUDIO\VS120\AR7.CPP
/c /I"U:\Documents\Computer Science Semester 1\Augmented Reality\ARToolKit5\VisualStudio\vs120\..\..\include\win32-i386" /I"U:\Documents\Computer Science Semester 1\Augmented Reality\ARToolKit5\VisualStudio\vs120\..\..\include" /Zi /nologo /W3 /WX- /Od /Oy- /D WIN32 /D _DEBUG /D DEBUG /D _CONSOLE /D _CRT_SECURE_NO_DEPRECATE /D _VC80_UPGRADE=0x0710 /D _MBCS /Gm /EHsc /RTC1 /MDd /GS /fp:precise /Zc:wchar_t /Zc:forScope /Fo"DEBUG\SIMPLELITE\\" /Fd"DEBUG\SIMPLELITE\VC120.PDB" /Gd /TP /analyze- U:\DOCUMENTS\COMPUTER SCIENCE SEMESTER 1\AUGMENTED REALITY\ARTOOLKIT5\VISUALSTUDIO\VS120\AR7.CPP
^U:\DOCUMENTS\COMPUTER SCIENCE SEMESTER 1\AUGMENTED REALITY\ARTOOLKIT5\VISUALSTUDIO\VS120\AR9.CPP
/c /I"U:\Documents\Computer Science Semester 1\Augmented Reality\ARToolKit5\VisualStudio\vs120\..\..\include\win32-i386" /I"U:\Documents\Computer Science Semester 1\Augmented Reality\ARToolKit5\VisualStudio\vs120\..\..\include" /Zi /nologo /W3 /WX- /Od /Oy- /D WIN32 /D _DEBUG /D DEBUG /D _CONSOLE /D _CRT_SECURE_NO_DEPRECATE /D _VC80_UPGRADE=0x0710 /D _MBCS /Gm /EHsc /RTC1 /MDd /GS /fp:precise /Zc:wchar_t /Zc:forScope /Fo"DEBUG\SIMPLELITE\\" /Fd"DEBUG\SIMPLELITE\VC120.PDB" /Gd /TP /analyze- U:\DOCUMENTS\COMPUTER SCIENCE SEMESTER 1\AUGMENTED REALITY\ARTOOLKIT5\VISUALSTUDIO\VS120\AR9.CPP
^U:\DOCUMENTS\COMPUTER SCIENCE SEMESTER 1\AUGMENTED REALITY\ARTOOLKIT5\VISUALSTUDIO\VS120\AR10.CPP
/c /I"U:\Documents\Computer Science Semester 1\Augmented Reality\ARToolKit5\include\win32-i386" /I"U:\Documents\Computer Science Semester 1\Augmented Reality\ARToolKit5\VisualStudio\vs120\..\..\include" /Zi /nologo /W3 /WX- /Od /Oy- /D WIN32 /D _DEBUG /D DEBUG /D _CONSOLE /D _CRT_SECURE_NO_DEPRECATE /D _VC80_UPGRADE=0x0710 /D _MBCS /Gm /EHsc /RTC1 /MDd /GS /fp:precise /Zc:wchar_t /Zc:forScope /Fo"DEBUG\SIMPLELITE\\" /Fd"DEBUG\SIMPLELITE\VC120.PDB" /Gd /TP /analyze- U:\DOCUMENTS\COMPUTER SCIENCE SEMESTER 1\AUGMENTED REALITY\ARTOOLKIT5\VISUALSTUDIO\VS120\AR10.CPP
^U:\DOCUMENTS\COMPUTER SCIENCE SEMESTER 1\AUGMENTED REALITY\ARTOOLKIT5\VISUALSTUDIO\VS120\DEPTHESTIMATION.CPP
/c /I"U:\Documents\Computer Science Semester 1\Augmented Reality\ARToolKit5\VisualStudio\vs120\..\..\include\win32-i386" /I"U:\Documents\Computer Science Semester 1\Augmented Reality\ARToolKit5\VisualStudio\vs120\..\..\include" /Zi /nologo /W3 /WX- /Od /Oy- /D WIN32 /D _DEBUG /D DEBUG /D _CONSOLE /D _CRT_SECURE_NO_DEPRECATE /D _VC80_UPGRADE=0x0710 /D _MBCS /Gm /EHsc /RTC1 /MDd /GS /fp:precise /Zc:wchar_t /Zc:forScope /Fo"DEBUG\SIMPLELITE\\" /Fd"DEBUG\SIMPLELITE\VC120.PDB" /Gd /TP /analyze- U:\DOCUMENTS\COMPUTER SCIENCE SEMESTER 1\AUGMENTED REALITY\ARTOOLKIT5\VISUALSTUDIO\VS120\DEPTHESTIMATION.CPP
