^C:\PROGRAM FILES\ARTOOLKIT5\EXAMPLES\SIMPLELITE\SIMPLELITE.C
C:\PROGRAM FILES\ARTOOLKIT5\VISUALSTUDIO\VS120\DEBUG\SIMPLELITE\VC140.PDB
C:\PROGRAM FILES\ARTOOLKIT5\VISUALSTUDIO\VS120\DEBUG\SIMPLELITE\VC140.IDB
C:\PROGRAM FILES\ARTOOLKIT5\VISUALSTUDIO\VS120\DEBUG\SIMPLELITE\SIMPLELITE.OBJ
C:\PROGRAM FILES\ARTOOLKIT5\VISUALSTUDIO\VS120\DEBUG\SIMPLELITE\VC120.PDB
C:\PROGRAM FILES\ARTOOLKIT5\VISUALSTUDIO\VS120\DEBUG\SIMPLELITE\VC120.IDB
^U:\DOCUMENTS\COMPUTER SCIENCE SEMESTER 1\AUGMENTED REALITY\ARTOOLKIT5\EXAMPLES\SIMPLELITE\SIMPLELITE.C
U:\DOCUMENTS\COMPUTER SCIENCE SEMESTER 1\AUGMENTED REALITY\ARTOOLKIT5\VISUALSTUDIO\VS120\DEBUG\SIMPLELITE\VC120.PDB
U:\DOCUMENTS\COMPUTER SCIENCE SEMESTER 1\AUGMENTED REALITY\ARTOOLKIT5\VISUALSTUDIO\VS120\DEBUG\SIMPLELITE\VC120.IDB
U:\DOCUMENTS\COMPUTER SCIENCE SEMESTER 1\AUGMENTED REALITY\ARTOOLKIT5\VISUALSTUDIO\VS120\DEBUG\SIMPLELITE\SIMPLELITE.OBJ
^U:\DOCUMENTS\COMPUTER SCIENCE SEMESTER 1\AUGMENTED REALITY\ARTOOLKIT5\VISUALSTUDIO\VS120\AR1.CPP
U:\DOCUMENTS\COMPUTER SCIENCE SEMESTER 1\AUGMENTED REALITY\ARTOOLKIT5\VISUALSTUDIO\VS120\DEBUG\SIMPLELITE\VC120.PDB
U:\DOCUMENTS\COMPUTER SCIENCE SEMESTER 1\AUGMENTED REALITY\ARTOOLKIT5\VISUALSTUDIO\VS120\DEBUG\SIMPLELITE\VC120.IDB
U:\DOCUMENTS\COMPUTER SCIENCE SEMESTER 1\AUGMENTED REALITY\ARTOOLKIT5\VISUALSTUDIO\VS120\DEBUG\SIMPLELITE\AR1.OBJ
^U:\DOCUMENTS\COMPUTER SCIENCE SEMESTER 1\AUGMENTED REALITY\ARTOOLKIT5\VISUALSTUDIO\VS120\AR2.CPP
U:\DOCUMENTS\COMPUTER SCIENCE SEMESTER 1\AUGMENTED REALITY\ARTOOLKIT5\VISUALSTUDIO\VS120\DEBUG\SIMPLELITE\VC120.PDB
U:\DOCUMENTS\COMPUTER SCIENCE SEMESTER 1\AUGMENTED REALITY\ARTOOLKIT5\VISUALSTUDIO\VS120\DEBUG\SIMPLELITE\VC120.IDB
U:\DOCUMENTS\COMPUTER SCIENCE SEMESTER 1\AUGMENTED REALITY\ARTOOLKIT5\VISUALSTUDIO\VS120\DEBUG\SIMPLELITE\AR2.OBJ
^U:\DOCUMENTS\COMPUTER SCIENCE SEMESTER 1\AUGMENTED REALITY\ARTOOLKIT5\VISUALSTUDIO\VS120\AR3.CPP
U:\DOCUMENTS\COMPUTER SCIENCE SEMESTER 1\AUGMENTED REALITY\ARTOOLKIT5\VISUALSTUDIO\VS120\DEBUG\SIMPLELITE\VC120.IDB
U:\DOCUMENTS\COMPUTER SCIENCE SEMESTER 1\AUGMENTED REALITY\ARTOOLKIT5\VISUALSTUDIO\VS120\DEBUG\SIMPLELITE\AR3.OBJ
U:\DOCUMENTS\COMPUTER SCIENCE SEMESTER 1\AUGMENTED REALITY\ARTOOLKIT5\VISUALSTUDIO\VS120\DEBUG\SIMPLELITE\VC120.PDB
^U:\DOCUMENTS\COMPUTER SCIENCE SEMESTER 1\AUGMENTED REALITY\ARTOOLKIT5\VISUALSTUDIO\VS120\AR4.CPP
U:\DOCUMENTS\COMPUTER SCIENCE SEMESTER 1\AUGMENTED REALITY\ARTOOLKIT5\VISUALSTUDIO\VS120\DEBUG\SIMPLELITE\VC120.IDB
U:\DOCUMENTS\COMPUTER SCIENCE SEMESTER 1\AUGMENTED REALITY\ARTOOLKIT5\VISUALSTUDIO\VS120\DEBUG\SIMPLELITE\AR4.OBJ
U:\DOCUMENTS\COMPUTER SCIENCE SEMESTER 1\AUGMENTED REALITY\ARTOOLKIT5\VISUALSTUDIO\VS120\DEBUG\SIMPLELITE\VC120.PDB
^U:\DOCUMENTS\COMPUTER SCIENCE SEMESTER 1\AUGMENTED REALITY\ARTOOLKIT5\VISUALSTUDIO\VS120\AR5.CPP
U:\DOCUMENTS\COMPUTER SCIENCE SEMESTER 1\AUGMENTED REALITY\ARTOOLKIT5\VISUALSTUDIO\VS120\DEBUG\SIMPLELITE\VC120.PDB
U:\DOCUMENTS\COMPUTER SCIENCE SEMESTER 1\AUGMENTED REALITY\ARTOOLKIT5\VISUALSTUDIO\VS120\DEBUG\SIMPLELITE\VC120.IDB
U:\DOCUMENTS\COMPUTER SCIENCE SEMESTER 1\AUGMENTED REALITY\ARTOOLKIT5\VISUALSTUDIO\VS120\DEBUG\SIMPLELITE\AR5.OBJ
^U:\DOCUMENTS\COMPUTER SCIENCE SEMESTER 1\AUGMENTED REALITY\ARTOOLKIT5\VISUALSTUDIO\VS120\AR6.CPP
U:\DOCUMENTS\COMPUTER SCIENCE SEMESTER 1\AUGMENTED REALITY\ARTOOLKIT5\VISUALSTUDIO\VS120\DEBUG\SIMPLELITE\VC120.IDB
U:\DOCUMENTS\COMPUTER SCIENCE SEMESTER 1\AUGMENTED REALITY\ARTOOLKIT5\VISUALSTUDIO\VS120\DEBUG\SIMPLELITE\AR6.OBJ
U:\DOCUMENTS\COMPUTER SCIENCE SEMESTER 1\AUGMENTED REALITY\ARTOOLKIT5\VISUALSTUDIO\VS120\DEBUG\SIMPLELITE\VC120.PDB
^U:\DOCUMENTS\COMPUTER SCIENCE SEMESTER 1\AUGMENTED REALITY\ARTOOLKIT5\VISUALSTUDIO\VS120\AR8.CPP
U:\DOCUMENTS\COMPUTER SCIENCE SEMESTER 1\AUGMENTED REALITY\ARTOOLKIT5\VISUALSTUDIO\VS120\DEBUG\SIMPLELITE\VC120.IDB
U:\DOCUMENTS\COMPUTER SCIENCE SEMESTER 1\AUGMENTED REALITY\ARTOOLKIT5\VISUALSTUDIO\VS120\DEBUG\SIMPLELITE\AR8.OBJ
U:\DOCUMENTS\COMPUTER SCIENCE SEMESTER 1\AUGMENTED REALITY\ARTOOLKIT5\VISUALSTUDIO\VS120\DEBUG\SIMPLELITE\VC120.PDB
^U:\DOCUMENTS\COMPUTER SCIENCE SEMESTER 1\AUGMENTED REALITY\ARTOOLKIT5\VISUALSTUDIO\VS120\AR7.CPP
U:\DOCUMENTS\COMPUTER SCIENCE SEMESTER 1\AUGMENTED REALITY\ARTOOLKIT5\VISUALSTUDIO\VS120\DEBUG\SIMPLELITE\VC120.IDB
U:\DOCUMENTS\COMPUTER SCIENCE SEMESTER 1\AUGMENTED REALITY\ARTOOLKIT5\VISUALSTUDIO\VS120\DEBUG\SIMPLELITE\AR7.OBJ
U:\DOCUMENTS\COMPUTER SCIENCE SEMESTER 1\AUGMENTED REALITY\ARTOOLKIT5\VISUALSTUDIO\VS120\DEBUG\SIMPLELITE\VC120.PDB
^U:\DOCUMENTS\COMPUTER SCIENCE SEMESTER 1\AUGMENTED REALITY\ARTOOLKIT5\VISUALSTUDIO\VS120\AR9.CPP
U:\DOCUMENTS\COMPUTER SCIENCE SEMESTER 1\AUGMENTED REALITY\ARTOOLKIT5\VISUALSTUDIO\VS120\DEBUG\SIMPLELITE\VC120.PDB
U:\DOCUMENTS\COMPUTER SCIENCE SEMESTER 1\AUGMENTED REALITY\ARTOOLKIT5\VISUALSTUDIO\VS120\DEBUG\SIMPLELITE\VC120.IDB
^U:\DOCUMENTS\COMPUTER SCIENCE SEMESTER 1\AUGMENTED REALITY\ARTOOLKIT5\VISUALSTUDIO\VS120\AR10.CPP
U:\DOCUMENTS\COMPUTER SCIENCE SEMESTER 1\AUGMENTED REALITY\ARTOOLKIT5\VISUALSTUDIO\VS120\DEBUG\SIMPLELITE\VC120.PDB
U:\DOCUMENTS\COMPUTER SCIENCE SEMESTER 1\AUGMENTED REALITY\ARTOOLKIT5\VISUALSTUDIO\VS120\DEBUG\SIMPLELITE\VC120.IDB
U:\DOCUMENTS\COMPUTER SCIENCE SEMESTER 1\AUGMENTED REALITY\ARTOOLKIT5\VISUALSTUDIO\VS120\DEBUG\SIMPLELITE\AR10.OBJ
^U:\DOCUMENTS\COMPUTER SCIENCE SEMESTER 1\AUGMENTED REALITY\ARTOOLKIT5\VISUALSTUDIO\VS120\AR10.CPP|U:\DOCUMENTS\COMPUTER SCIENCE SEMESTER 1\AUGMENTED REALITY\ARTOOLKIT5\VISUALSTUDIO\VS120\DEPTHESTIMATION.CPP
U:\DOCUMENTS\COMPUTER SCIENCE SEMESTER 1\AUGMENTED REALITY\ARTOOLKIT5\VISUALSTUDIO\VS120\DEBUG\SIMPLELITE\VC120.PDB
U:\DOCUMENTS\COMPUTER SCIENCE SEMESTER 1\AUGMENTED REALITY\ARTOOLKIT5\VISUALSTUDIO\VS120\DEBUG\SIMPLELITE\AR10.OBJ
U:\DOCUMENTS\COMPUTER SCIENCE SEMESTER 1\AUGMENTED REALITY\ARTOOLKIT5\VISUALSTUDIO\VS120\DEBUG\SIMPLELITE\DEPTHESTIMATION.OBJ
^U:\DOCUMENTS\COMPUTER SCIENCE SEMESTER 1\AUGMENTED REALITY\ARTOOLKIT5\VISUALSTUDIO\VS120\DEPTHESTIMATION.CPP
U:\DOCUMENTS\COMPUTER SCIENCE SEMESTER 1\AUGMENTED REALITY\ARTOOLKIT5\VISUALSTUDIO\VS120\DEBUG\SIMPLELITE\VC120.PDB
