^C:\PROGRAM FILES\ARTOOLKIT5\VISUALSTUDIO\VS120\DEBUG\SIMPLELITE\SIMPLELITE.OBJ
C:\PROGRAM FILES\ARTOOLKIT5\BIN\SIMPLELITED.EXE
C:\PROGRAM FILES\ARTOOLKIT5\BIN\SIMPLELITE.PDB
^U:\DOCUMENTS\COMPUTER SCIENCE SEMESTER 1\AUGMENTED REALITY\ARTOOLKIT5\VISUALSTUDIO\VS120\DEBUG\SIMPLELITE\AR10.OBJ
U:\DOCUMENTS\COMPUTER SCIENCE SEMESTER 1\AUGMENTED REALITY\ARTOOLKIT5\BIN\SIMPLELITED.EXE
U:\DOCUMENTS\COMPUTER SCIENCE SEMESTER 1\AUGMENTED REALITY\ARTOOLKIT5\BIN\SIMPLELITE.PDB
